Min_Oper_Time_for_Party
Max_Oper_Time_for_Party
Min_Operation_Past
Max_Operation_Past
Min_Operation_Time_for_Item
Max_Operation_Time_for_Item
Min_Operation_Remained
Max_Operation_Remained
Min_Oper_Time_Past
Max_Oper_Time_Past
Min_Oper_Time_Remained
Max_Oper_Time_Remained
Random_Choice